…
    ## ── Conflicts ──────────────────────────────────────────────────── tidyverse_conflicts() ──
    ## x dplyr::filter() masks stats::filter()
    ## x dplyr::lag()    masks stats::lag()

**q1** What is the difference between these two versions? How are they
the same? How are they different?

``` r
## Version 1
filter(diamonds, cut == "Ideal")
```

    ## # A tibble: 21,551 x 10
    ##    carat cut   color clarity depth table price     x     y     z
    ##    <dbl> <ord> <ord> <ord>   <dbl> <dbl> <int> <dbl> <dbl> <dbl>
    ##  1  0.23 Ideal E     SI2      61.5    55   326  3.95  3.98  2.43
    ##  2  0.23 Ideal J     VS1      62.8    56   340  3.93  3.9   2.46
    ##  3  0.31 Ideal J     SI2      62.2    54   344  4.35  4.37  2.71
    ##  4  0.3  Ideal I     SI2      62      54   348  4.31  4.34  2.68
    ##  5  0.33 Ideal I     SI2      61.8    55   403  4.49  4.51  2.78
    ##  6  0.33 Ideal I     SI2      61.2    56   403  4.49  4.5   2.75
    ##  7  0.33 Ideal J     SI1      61.1    56   403  4.49  4.55  2.76
    ##  8  0.23 Ideal G     VS1      61.9    54   404  3.93  3.95  2.44
    ##  9  0.32 Ideal I     SI1      60.9    55   404  4.45  4.48  2.72
    ## 10  0.3  Ideal I     SI2      61      59   405  4.3   4.33  2.63
    ## # … with 21,541 more rows

``` r
## Version 2
diamonds %>% filter(cut == "Ideal")
```

    ## # A tibble: 21,551 x 10
    ##    carat cut   color clarity depth table price     x     y     z
    ##    <dbl> <ord> <ord> <ord>   <dbl> <dbl> <int> <dbl> <dbl> <dbl>
    ##  1  0.23 Ideal E     SI2      61.5    55   326  3.95  3.98  2.43
    ##  2  0.23 Ideal J     VS1      62.8    56   340  3.93  3.9   2.46
    ##  3  0.31 Ideal J     SI2      62.2    54   344  4.35  4.37  2.71
    ##  4  0.3  Ideal I     SI2      62      54   348  4.31  4.34  2.68
    ##  5  0.33 Ideal I     SI2      61.8    55   403  4.49  4.51  2.78
    ##  6  0.33 Ideal I     SI2      61.2    56   403  4.49  4.5   2.75
    ##  7  0.33 Ideal J     SI1      61.1    56   403  4.49  4.55  2.76
    ##  8  0.23 Ideal G     VS1      61.9    54   404  3.93  3.95  2.44
    ##  9  0.32 Ideal I     SI1      60.9    55   404  4.45  4.48  2.72
    ## 10  0.3  Ideal I     SI2      61      59   405  4.3   4.33  2.63
    ## # … with 21,541 more rows
…
    ## [1] "Great job!"

**q3** The function `group_by()` modifies how other dplyr verbs
function. Uncomment the `group_by()` below, and describe how the result
changes.

``` r
diamonds %>%
  group_by(color, clarity) %>%
  summarize(price = mean(price))
```

    ## `summarise()` regrouping output by 'color' (override with `.groups` argument)

    ## # A tibble: 56 x 3
    ## # Groups:   color [7]
    ##    color clarity price
    ##    <ord> <ord>   <dbl>
    ##  1 D     I1      3863.
    ##  2 D     SI2     3931.
    ##  3 D     SI1     2976.
    ##  4 D     VS2     2587.
    ##  5 D     VS1     3030.
    ##  6 D     VVS2    3351.
    ##  7 D     VVS1    2948.
    ##  8 D     IF      8307.
    ##  9 E     I1      3488.
    ## 10 E     SI2     4174.
    ## # … with 46 more rows
…
